{
  "total_items": 20,
  "total_pages": 4,
  "page_number": 4,
  "size": 4,
  "first_page": false,
  "last_page": false,
  "empty": true,
  "contents": [
    {
      "id": "ac148810-d857-441c-9679-408f346de14b",
      "status": "active"
    },
    {
      "id": "b644a0d2-9e8a-4c33-9390-ae9ee93fc056",
      "status": "active"
    },
    {
      "id": "e85f5bb0-62f0-42cc-a08a-0c5c16273090",
      "status": "active"
    },
    {
      "id": "ac148810-d857-441c-9679-408f346de14b",
      "status": "active"
    },
    {
      "id": "ac148810-d857-441c-9679-408f346de14b",
      "status": "active"
    }
  ]
}